<?xml version="1.0" encoding="UTF-8"?>
<session version="1.0">
<refactoring comment="Rename Java project &apos;SimulatorTst&apos; to &apos;Hospital-IoT&apos;&#x0A;- Original element: &apos;SimulatorTst&apos;&#x0A;- Renamed element: &apos;SimulatorTst&apos;&#x0A;- Update references to refactored element" description="Rename Java project &apos;SimulatorTst&apos;" flags="7" id="org.eclipse.jdt.ui.rename.java.project" input="=SimulatorTst" name="Hospital-IoT" references="true" stamp="1533670926741" version="1.0"/>
</session>